[
  {
    "_id": 101,
    "email": "dcase@nwmissouri.edu",
    "given": "Denise",
    "family": "Case",
    "street1": "800 University Drive",
    "street2": "NWMSU",
    "city": "Maryville",
    "state": "MO",
    "zip": 64468,
    "country": "USA"
  },
  {
    "_id": 102,
    "email": "s533975@nwmissouri.edu",
    "given": "Lohitha",
    "family": "Bhethalam",
    "street1": "University Drive",
    "street2": "hayathnagar",
    "city": "Hyderabad",
    "state": "Telangana",
    "zip": 500070,
    "country": "INDIA"
  },
  {
    "_id": 103,
    "email": "S533901@nwmissouri.edu",
    "given": "Rahul",
    "family": "Dayam",
    "street1": "new york street",
    "street2": "",
    "city": "Hyderabad",
    "state": "Telangana",
    "zip": 500035,
    "country": "INDIA"
  },
  {
    "_id": 104,
    "email": "s533708@nwmissouri.edu",
    "given": "Sai Krishna Teja",
    "family": "Kancharla",
    "street1": "apartment 99",
    "street2": " maryville",
    "city": "Vijayawada",
    "state": "Andhra Pradesh",
    "zip": 520003,
    "country": "INDIA"
  }
]